# Blender v2.93.5 OBJ File: 'GIRONA1000.blend'
# www.blender.org
v 0.045423 0.111000 -0.025546
v 0.002099 0.111000 -0.025546
v 0.049912 0.111000 -0.046048
v 0.069104 0.111000 -0.031189
v 0.002099 0.111000 0.025546
v -0.009344 0.111000 -0.028487
v 0.007012 0.111000 -0.043171
v 0.025962 0.111000 -0.048982
v 0.045423 0.111000 0.025546
v 0.052928 0.111000 0.044088
v 0.036038 0.111000 0.048982
v 0.012088 0.111000 0.046048
v 0.079167 0.111000 -0.011703
v 0.079142 0.111000 0.010345
v 0.070181 0.111000 0.030362
v -0.008560 0.111000 0.029566
v -0.016206 0.111000 0.013601
v -0.018207 0.111000 -0.005968
v -0.068000 0.043603 0.094685
v -0.068000 0.014197 0.091143
v -0.068000 -0.018118 0.090924
v -0.068000 -0.006029 0.104067
v -0.068000 0.019364 0.102428
v -0.068000 -0.057833 0.086963
v -0.068000 -0.031067 0.099504
v -0.068000 0.012069 -0.091547
v -0.068000 0.043603 -0.094685
v -0.068000 0.019365 -0.102428
v -0.068000 -0.006029 -0.104067
v -0.068000 -0.037161 -0.097737
v -0.068000 -0.014197 -0.091143
v -0.068000 0.037347 -0.084344
v -0.068000 0.065242 -0.081300
v -0.068000 0.057942 -0.071774
v -0.068000 0.086102 -0.033096
v -0.068000 0.095804 -0.041082
v -0.068000 0.074573 -0.054292
v -0.068000 0.082996 -0.063072
v -0.068000 0.074573 0.054292
v -0.068000 0.095804 0.041081
v -0.068000 0.086103 0.033096
v -0.068000 0.103663 0.012661
v -0.068000 0.092767 0.000002
v -0.068000 0.102894 -0.016676
v -0.068000 0.037347 0.084344
v -0.068000 0.065243 0.081301
v -0.068000 0.057942 0.071774
v -0.068000 0.082996 0.063072
v -0.068000 -0.037347 -0.084344
v -0.068000 -0.065439 -0.081191
v -0.068000 -0.057942 -0.071774
v -0.068000 -0.100252 -0.028475
v -0.068000 -0.086102 -0.033096
v -0.068000 -0.074573 -0.054292
v -0.068000 -0.087596 -0.057097
v -0.068000 -0.098435 0.034281
v -0.068000 -0.081034 0.044073
v -0.068000 -0.089692 0.021551
v -0.068000 -0.104580 0.002758
v -0.068000 -0.092193 -0.006116
v -0.068000 -0.048057 0.078736
v -0.068000 -0.083942 0.062344
v -0.068000 -0.066831 0.063580
v 0.024000 0.105964 -0.025546
v 0.002100 0.105131 -0.025318
v 0.002099 0.111000 -0.025546
v 0.045423 0.111000 -0.025546
v 0.045423 0.096000 -0.025546
v 0.024000 0.096000 -0.025546
v 0.002099 0.111000 0.025546
v 0.002100 0.105131 -0.025318
v 0.002099 0.107907 0.000000
v 0.002100 0.105111 0.025430
v 0.002099 0.111000 -0.025546
v 0.045423 0.111000 0.025546
v 0.002099 0.111000 0.025546
v 0.002100 0.105111 0.025430
v 0.024000 0.105964 0.025546
v 0.024000 0.096000 0.025546
v 0.045423 0.096000 0.025546
v 0.024000 0.096000 -0.025546
v 0.024000 0.092523 -0.005178
v 0.024000 0.084599 -0.036773
v 0.023998 -0.105251 -0.028011
v 0.024000 -0.084599 -0.036774
v 0.024000 -0.095000 -0.028000
v 0.024000 0.090168 0.019468
v 0.024000 0.098197 0.049258
v 0.024000 0.081998 0.042257
v 0.024000 -0.095000 0.028000
v 0.024000 -0.093439 0.004973
v 0.024000 -0.090732 0.016097
v 0.024000 -0.092942 -0.004971
v 0.024000 0.096000 -0.005000
v 0.024000 -0.084599 0.036773
v 0.024000 -0.099915 0.044182
v 0.023998 -0.105251 0.028011
v 0.024000 0.096000 0.025546
v 0.024000 0.105964 0.025546
v 0.024000 0.093250 0.004949
v 0.024000 0.054560 0.094651
v 0.024000 -0.055288 0.094774
v 0.024000 -0.009089 0.091838
v 0.024000 0.022035 0.089913
v 0.024000 -0.022113 -0.106987
v 0.024000 0.004195 -0.109169
v 0.024000 0.030261 -0.104975
v 0.024000 -0.056221 -0.094310
v 0.024000 0.054562 -0.094650
v 0.024000 -0.009935 -0.091707
v 0.024000 0.024143 -0.089674
v 0.024000 0.075673 -0.078796
v 0.024000 0.054668 -0.074299
v 0.024000 0.098198 -0.049258
v 0.024000 0.072117 -0.057517
v 0.024000 0.105964 -0.025546
v 0.024000 -0.033454 -0.085964
v 0.024000 -0.085018 -0.068759
v 0.024000 -0.054669 -0.074299
v 0.024000 -0.072117 -0.057517
v 0.024000 -0.099914 -0.044182
v 0.024000 -0.072117 0.057517
v 0.024000 -0.084425 0.069567
v 0.024000 -0.054668 0.074299
v 0.024000 -0.033454 0.085964
v 0.024000 0.068179 0.062135
v 0.024000 0.075674 0.078796
v 0.024000 0.049664 0.077732
v 0.024000 0.030261 0.104975
v 0.024000 -0.022113 0.106987
v 0.024000 0.004195 0.109169
v -0.068000 0.103663 0.012661
v 0.002100 0.105111 0.025430
v 0.002099 0.107907 0.000000
v -0.068000 0.095804 0.041081
v 0.024000 0.098197 0.049258
v -0.068000 0.082996 0.063072
v 0.024000 0.075674 0.078796
v -0.068000 0.065243 0.081301
v 0.024000 0.054560 0.094651
v -0.068000 0.043603 0.094685
v 0.024000 0.030261 0.104975
v -0.068000 0.019364 0.102428
v 0.024000 0.004195 0.109169
v -0.068000 -0.006029 0.104067
v 0.024000 -0.022113 0.106987
v -0.068000 -0.031067 0.099504
v 0.024000 -0.055288 0.094774
v -0.068000 -0.057833 0.086963
v 0.024000 -0.099915 0.044182
v 0.024000 -0.084425 0.069567
v -0.068000 -0.083942 0.062344
v -0.068000 -0.098435 0.034281
v -0.068000 -0.104580 0.002758
v 0.023993 -0.108758 0.010379
v 0.023998 -0.105251 0.028011
v 0.024000 0.105964 0.025546
v -0.068000 0.102894 -0.016676
v 0.023997 -0.107982 -0.015164
v -0.068000 -0.100252 -0.028475
v -0.068000 -0.087596 -0.057097
v 0.024000 -0.099914 -0.044182
v 0.024000 -0.085018 -0.068759
v -0.068000 -0.065439 -0.081191
v 0.024000 -0.056221 -0.094310
v -0.068000 -0.037161 -0.097737
v 0.024000 -0.022113 -0.106987
v -0.068000 -0.006029 -0.104067
v 0.024000 0.004195 -0.109169
v -0.068000 0.019365 -0.102428
v 0.024000 0.030261 -0.104975
v -0.068000 0.043603 -0.094685
v 0.024000 0.054562 -0.094650
v -0.068000 0.065242 -0.081300
v 0.024000 0.075673 -0.078796
v -0.068000 0.082996 -0.063072
v 0.024000 0.098198 -0.049258
v -0.068000 0.095804 -0.041082
v 0.002100 0.105131 -0.025318
v 0.024000 0.105964 -0.025546
v 0.023998 -0.105251 -0.028011
v 0.045000 -0.106810 0.027107
v 0.045000 -0.105826 -0.027592
v 0.045000 -0.105826 -0.027592
v 0.045000 -0.095000 -0.028000
v 0.045000 -0.095000 -0.005000
v 0.045000 -0.095000 0.005000
v 0.045000 -0.095000 0.028000
v 0.045000 -0.106810 0.027107
v 0.045000 -0.028285 -0.004952
v 0.045000 -0.028097 0.004992
v 0.024000 -0.095000 -0.028000
v 0.045000 -0.095000 -0.028000
v 0.023998 -0.105251 -0.028011
v 0.045000 -0.105826 -0.027592
v 0.024000 -0.095000 0.028000
v 0.023998 -0.105251 0.028011
v 0.045000 -0.095000 0.028000
v 0.045000 -0.106810 0.027107
v 0.045000 -0.095000 0.028000
v 0.045000 -0.095000 0.005000
v 0.024000 -0.095000 0.028000
v 0.024000 -0.093439 0.004973
v 0.045000 -0.095000 -0.005000
v 0.045000 -0.095000 -0.028000
v 0.024000 -0.092942 -0.004971
v 0.024000 -0.095000 -0.028000
v 0.045000 -0.028285 -0.004952
v 0.045000 -0.095000 -0.005000
v 0.024000 -0.092942 -0.004971
v 0.015000 -0.091864 -0.005000
v 0.015000 -0.028099 -0.004977
v 0.045000 -0.095000 0.005000
v 0.045000 -0.028097 0.004992
v 0.024000 -0.093439 0.004973
v 0.015000 -0.028289 0.004906
v 0.015000 -0.091906 0.004982
v 0.045423 0.111000 -0.025546
v 0.045423 0.111000 0.025546
v 0.045423 0.096000 -0.025546
v 0.045423 0.096000 0.025546
v 0.038290 0.202000 -0.048847
v 0.014232 0.202000 -0.046645
v 0.056792 0.202000 -0.041945
v -0.005750 0.202000 -0.032993
v 0.069886 0.202000 -0.030208
v 0.079474 0.202000 -0.010355
v -0.015633 0.202000 -0.015811
v -0.018207 0.202000 0.005968
v 0.078863 0.202000 0.011568
v 0.069319 0.202000 0.031442
v -0.010437 0.202000 0.026601
v 0.003238 0.202000 0.040847
v 0.047768 0.202000 0.046645
v 0.023710 0.202000 0.048847
v 0.079167 0.111000 -0.011703
v 0.079474 0.202000 -0.010355
v 0.079142 0.111000 0.010345
v 0.078863 0.202000 0.011568
v 0.070181 0.111000 0.030362
v 0.069319 0.202000 0.031442
v 0.052928 0.111000 0.044088
v 0.047768 0.202000 0.046645
v 0.036038 0.111000 0.048982
v 0.023710 0.202000 0.048847
v 0.012088 0.111000 0.046048
v 0.003238 0.202000 0.040847
v -0.008560 0.111000 0.029566
v -0.010437 0.202000 0.026601
v -0.016206 0.111000 0.013601
v -0.018207 0.202000 0.005968
v -0.018207 0.111000 -0.005968
v -0.015633 0.202000 -0.015811
v -0.009344 0.111000 -0.028487
v -0.005750 0.202000 -0.032993
v 0.007012 0.111000 -0.043171
v 0.014232 0.202000 -0.046645
v 0.025962 0.111000 -0.048982
v 0.038290 0.202000 -0.048847
v 0.049912 0.111000 -0.046048
v 0.056792 0.202000 -0.041945
v 0.069104 0.111000 -0.031189
v 0.069886 0.202000 -0.030208
v 0.045000 0.096000 0.005000
v 0.045000 0.028221 0.004961
v 0.045000 0.028119 -0.004988
v 0.045000 0.096000 -0.005000
v 0.015000 0.028099 0.004977
v 0.045000 0.028221 0.004961
v 0.015000 0.091864 0.005000
v 0.024000 0.093250 0.004949
v 0.045000 0.096000 0.005000
v 0.045000 0.096000 -0.005000
v 0.045000 0.028119 -0.004988
v 0.024000 0.096000 -0.005000
v 0.024000 0.092523 -0.005178
v 0.015000 0.028289 -0.004906
v 0.015000 0.091913 -0.004986
v 0.045423 0.096000 -0.025546
v 0.024000 0.096000 -0.005000
v 0.024000 0.096000 -0.025546
v 0.045000 0.096000 -0.005000
v 0.045423 0.096000 0.025546
v 0.045000 0.096000 0.005000
v 0.024000 0.096000 0.025546
v 0.024000 0.093250 0.004949
v 0.015000 0.091913 -0.004986
v 0.015000 0.028289 -0.004906
v 0.015000 0.028099 0.004977
v 0.015000 0.091864 0.005000
v 0.015000 -0.028099 -0.004977
v 0.015000 -0.091906 0.004982
v 0.015000 -0.028289 0.004906
v 0.015000 -0.091864 -0.005000
v -0.068000 -0.089692 0.021551
v 0.024000 -0.090732 0.016097
v -0.068000 -0.092193 -0.006116
v 0.024000 -0.084599 0.036773
v -0.068000 -0.081034 0.044073
v 0.024000 -0.072117 0.057517
v -0.068000 -0.066831 0.063580
v 0.024000 -0.054668 0.074299
v -0.068000 -0.048057 0.078736
v 0.024000 -0.033454 0.085964
v -0.068000 -0.018118 0.090924
v 0.024000 -0.009089 0.091838
v 0.024000 0.022035 0.089913
v -0.068000 0.014197 0.091143
v -0.068000 0.037347 0.084344
v 0.024000 0.049664 0.077732
v -0.068000 0.057942 0.071774
v 0.024000 0.068179 0.062135
v -0.068000 0.074573 0.054292
v 0.024000 0.081998 0.042257
v -0.068000 0.086103 0.033096
v 0.024000 0.090168 0.019468
v -0.068000 0.092767 0.000002
v 0.024000 -0.093439 0.004973
v 0.015000 -0.091906 0.004982
v 0.015000 0.091913 -0.004986
v 0.015000 0.091864 0.005000
v -0.068000 0.092767 0.000002
v -0.068000 0.092767 0.000002
v 0.024000 0.093250 0.004949
v -0.068000 0.086102 -0.033096
v 0.024000 0.092523 -0.005178
v -0.068000 0.092767 0.000002
v 0.024000 0.084599 -0.036773
v -0.068000 0.074573 -0.054292
v 0.024000 0.072117 -0.057517
v -0.068000 0.057942 -0.071774
v 0.024000 0.054668 -0.074299
v -0.068000 0.037347 -0.084344
v 0.024000 0.024143 -0.089674
v -0.068000 0.012069 -0.091547
v -0.068000 -0.014197 -0.091143
v 0.024000 -0.033454 -0.085964
v 0.024000 -0.009935 -0.091707
v -0.068000 -0.037347 -0.084344
v 0.024000 -0.054669 -0.074299
v -0.068000 -0.057942 -0.071774
v 0.024000 -0.072117 -0.057517
v -0.068000 -0.074573 -0.054292
v 0.024000 -0.084599 -0.036774
v -0.068000 -0.086102 -0.033096
v 0.024000 -0.092942 -0.004971
v -0.068000 -0.092193 -0.006116
v 0.015000 -0.091864 -0.005000
v -0.068000 -0.092193 -0.006116
v -0.068000 0.092767 0.000002
v 0.045000 -0.028285 -0.004952
v 0.081494 -0.027010 -0.009483
v 0.081501 -0.028616 -0.000000
v 0.015000 -0.028099 -0.004977
v 0.000000 -0.027605 -0.008151
v 0.045000 0.028119 -0.004988
v 0.081497 0.028621 -0.000014
v 0.081484 0.026360 -0.011515
v 0.000000 0.028019 -0.006655
v 0.015000 0.028289 -0.004906
v 0.045000 0.028221 0.004961
v 0.000000 0.017903 -0.023143
v 0.081496 0.019393 -0.021052
v 0.081505 0.009456 -0.027133
v 0.000000 0.000475 -0.028731
v 0.081499 -0.007116 -0.028165
v 0.000000 -0.017036 -0.023788
v 0.081506 -0.021162 -0.019438
v 0.015000 -0.028289 0.004906
v 0.000000 -0.028019 0.006655
v 0.081494 0.027010 0.009483
v 0.015000 0.028099 0.004977
v 0.000000 0.027605 0.008151
v 0.045000 -0.028097 0.004992
v 0.081484 -0.026360 0.011515
v 0.000000 -0.017903 0.023143
v 0.081523 -0.014227 0.025561
v 0.000000 -0.017903 0.023143
v 0.081523 -0.014227 0.025561
v 0.000000 -0.000475 0.028731
v 0.081499 0.007116 0.028165
v 0.000000 0.017036 0.023788
v 0.081506 0.021162 0.019438
v 0.092522 -0.011072 -0.008884
v 0.092526 0.003721 -0.013693
v 0.092506 0.013165 -0.004304
v 0.092506 -0.013165 0.004304
v 0.092522 0.011072 0.008884
v 0.092526 -0.003721 0.013693
v 0.081501 -0.028616 -0.000000
v 0.092522 -0.011072 -0.008884
v 0.092506 -0.013165 0.004304
v 0.081494 -0.027010 -0.009483
v 0.081506 -0.021162 -0.019438
v 0.081499 -0.007116 -0.028165
v 0.092526 0.003721 -0.013693
v 0.081505 0.009456 -0.027133
v 0.081496 0.019393 -0.021052
v 0.081484 0.026360 -0.011515
v 0.092506 0.013165 -0.004304
v 0.081497 0.028621 -0.000014
v 0.092522 0.011072 0.008884
v 0.081494 0.027010 0.009483
v 0.081506 0.021162 0.019438
v 0.081499 0.007116 0.028165
v 0.092526 -0.003721 0.013693
v 0.081523 -0.014227 0.025561
v 0.081484 -0.026360 0.011515
v 0.000000 -0.028019 0.006655
v 0.000000 0.028019 -0.006655
v 0.000000 -0.027605 -0.008151
v 0.000000 0.017903 -0.023143
v 0.000000 -0.017036 -0.023788
v 0.000000 0.000475 -0.028731
v 0.000000 0.027605 0.008151
v 0.000000 -0.017903 0.023143
v 0.000000 0.017036 0.023788
v 0.000000 -0.000475 0.028731
vn -0.0000 -1.0000 -0.0000
vn -1.0000 0.0000 0.0000
vn -0.0005 -0.0022 -1.0000
vn -0.0089 -0.0388 -0.9992
vn -0.0076 -0.0332 -0.9994
vn -0.0000 0.0000 -1.0000
vn -1.0000 -0.0002 0.0000
vn -1.0000 0.0032 -0.0004
vn -0.0004 -0.0000 1.0000
vn 0.0000 -0.0197 0.9998
vn -0.0004 -0.0168 0.9999
vn -0.0039 0.0168 0.9999
vn 0.0000 0.0000 1.0000
vn 1.0000 -0.0000 0.0000
vn 1.0000 -0.0001 -0.0000
vn 1.0000 -0.0001 -0.0001
vn 1.0000 -0.0001 0.0001
vn 1.0000 -0.0000 -0.0001
vn 1.0000 -0.0000 0.0001
vn -0.0579 0.9903 0.1260
vn -0.0624 0.9604 0.2717
vn -0.0459 0.9989 -0.0014
vn -0.0579 0.9223 0.3820
vn -0.0501 0.8851 0.4627
vn -0.0619 0.7938 0.6051
vn -0.0454 0.7025 0.7103
vn -0.0611 0.6247 0.7785
vn -0.0479 0.4989 0.8653
vn -0.0612 0.4175 0.9066
vn -0.0479 0.2767 0.9598
vn -0.0613 0.1854 0.9808
vn -0.0478 0.0384 0.9981
vn -0.0614 -0.0578 0.9964
vn -0.0463 -0.2147 0.9756
vn -0.0616 -0.3031 0.9510
vn -0.0473 -0.5083 0.8599
vn -0.0616 -0.5625 0.8245
vn -0.0493 -0.9069 0.4184
vn -0.0480 -0.7619 0.6459
vn -0.0611 -0.7967 0.6013
vn -0.0617 -0.9431 0.3268
vn -0.0608 -0.9977 0.0282
vn 0.0065 -0.9981 0.0614
vn -0.0577 -0.9708 0.2328
vn -0.0386 0.9496 0.3111
vn -0.0578 0.9857 -0.1581
vn 0.0043 -0.9947 -0.1026
vn -0.0636 -0.9601 -0.2722
vn -0.0637 -0.8347 -0.5469
vn -0.0483 -0.9082 -0.4157
vn -0.0441 -0.7676 -0.6394
vn -0.0657 -0.6280 -0.7754
vn -0.0431 -0.5151 -0.8561
vn -0.0659 -0.3543 -0.9328
vn -0.0447 -0.2146 -0.9757
vn -0.0629 -0.0668 -0.9958
vn -0.0478 0.0384 -0.9981
vn -0.0613 0.1854 -0.9808
vn -0.0479 0.2767 -0.9598
vn -0.0612 0.4175 -0.9066
vn -0.0479 0.4989 -0.8653
vn -0.0611 0.6247 -0.7785
vn -0.0454 0.7025 -0.7103
vn -0.0619 0.7937 -0.6051
vn -0.0490 0.8849 -0.4631
vn -0.0584 0.9197 -0.3883
vn -0.0579 0.9629 -0.2635
vn -0.0394 0.9496 -0.3110
vn -0.0417 -0.9691 -0.2429
vn 0.0288 -0.9968 0.0746
vn 0.0516 -0.9950 -0.0854
vn 0.0000 0.0011 -1.0000
vn 0.0134 -0.0265 -0.9996
vn 0.0057 -0.0106 -0.9999
vn 0.0189 -0.0377 -0.9991
vn 0.0000 0.0011 1.0000
vn 0.0120 -0.0235 0.9997
vn 0.0265 -0.0533 0.9982
vn 0.0373 -0.0753 0.9965
vn 0.0000 1.0000 0.0000
vn 0.0392 0.9986 0.0358
vn 0.0349 0.9989 0.0319
vn 0.0739 0.9950 0.0674
vn 0.0975 0.9952 0.0000
vn 0.0460 0.9978 -0.0472
vn 0.0517 0.9978 -0.0420
vn 0.0000 0.9960 -0.0890
vn 0.0006 0.0003 -1.0000
vn -0.0013 0.0007 -1.0000
vn 0.0016 0.0027 -1.0000
vn 0.0093 0.0527 -0.9986
vn 0.0008 0.0004 -1.0000
vn -0.0013 0.0001 1.0000
vn -0.0026 0.0005 1.0000
vn -0.0005 0.0006 1.0000
vn -0.0025 0.0007 1.0000
vn 0.0012 0.0012 1.0000
vn 0.9718 -0.0026 -0.2358
vn 0.9779 0.0027 -0.2092
vn 0.9778 -0.0026 0.2096
vn 0.9719 0.0026 0.2354
vn 0.7902 -0.0026 0.6128
vn 0.7648 0.0058 0.6443
vn 0.4614 -0.0061 0.8872
vn 0.3467 0.0107 0.9379
vn 0.0812 -0.0110 0.9966
vn -0.1389 0.0136 0.9902
vn -0.3870 -0.0134 0.9220
vn -0.5584 0.0105 0.8295
vn -0.7848 -0.0090 0.6196
vn -0.8457 0.0077 0.5337
vn -0.9618 -0.0078 0.2736
vn -0.9924 0.0107 0.1229
vn -0.9906 -0.0114 -0.1361
vn -0.9486 0.0105 -0.3162
vn -0.8208 -0.0106 -0.5711
vn -0.7346 0.0099 -0.6784
vn -0.4930 -0.0100 -0.8700
vn -0.3386 0.0120 -0.9408
vn -0.0883 -0.0120 -0.9960
vn 0.1319 0.0126 -0.9912
vn 0.3818 -0.0112 -0.9242
vn 0.5212 0.0077 -0.8534
vn 0.7701 -0.0060 -0.6379
vn 0.7989 0.0024 -0.6014
vn 0.0005 -0.0004 1.0000
vn 0.0004 -0.0002 1.0000
vn -0.0318 0.2389 0.9705
vn -0.0007 0.0188 0.9998
vn -0.0024 -0.0006 1.0000
vn 0.0000 -0.0002 -1.0000
vn -0.0006 -0.0026 -1.0000
vn 0.0317 0.0096 -0.9995
vn 0.0911 0.0370 -0.9951
vn -0.0044 -0.0036 -1.0000
vn -0.0404 0.2958 -0.9544
vn 0.0214 -0.9995 0.0219
vn 0.0657 -0.9956 0.0672
vn 0.1284 -0.9830 0.1312
vn 0.0059 0.9741 -0.2261
vn 0.0360 0.9747 -0.2208
vn 0.0056 0.9964 -0.0845
vn -0.0057 0.9153 -0.4027
vn 0.0065 0.8784 -0.4779
vn -0.0065 0.7818 -0.6235
vn 0.0064 0.7245 -0.6893
vn -0.0064 0.5926 -0.8054
vn 0.0088 0.5094 -0.8605
vn -0.0080 0.3630 -0.9318
vn 0.0091 0.1943 -0.9809
vn -0.0087 0.0855 -0.9963
vn -0.0082 -0.2352 -0.9719
vn 0.0084 -0.1383 -0.9904
vn 0.0076 -0.4056 -0.9140
vn -0.0086 -0.5300 -0.8479
vn 0.0071 -0.6281 -0.7781
vn -0.0071 -0.7390 -0.6736
vn 0.0071 -0.8084 -0.5886
vn -0.0071 -0.8889 -0.4581
vn 0.0097 -0.9392 -0.3431
vn 0.0049 -0.9641 -0.2657
vn 0.0143 -0.9800 -0.1985
vn 0.1631 0.9586 -0.2333
vn 0.0367 0.9941 -0.1022
vn -0.0106 -0.9999 -0.0049
vn -0.0518 0.3706 0.9274
vn 0.0163 -0.9781 -0.2076
vn 0.0051 -0.9395 0.3424
vn -0.0029 -0.9724 0.2332
vn 0.0085 -0.9803 0.1974
vn -0.0047 -0.9233 0.3840
vn 0.0040 -0.8085 0.5885
vn -0.0041 -0.7818 0.6236
vn 0.0041 -0.6282 0.7780
vn -0.0076 -0.5800 0.8146
vn 0.0081 -0.4045 0.9145
vn -0.0102 -0.2600 0.9656
vn 0.0084 -0.1272 0.9918
vn 0.0044 0.1501 0.9887
vn -0.0042 0.3626 0.9319
vn -0.0074 0.0921 0.9957
vn 0.0042 0.4049 0.9143
vn -0.0041 0.5926 0.8055
vn 0.0041 0.6282 0.7780
vn -0.0041 0.7818 0.6236
vn 0.0040 0.8085 0.5885
vn -0.0045 0.9213 0.3889
vn 0.0038 0.9358 0.3524
vn -0.0036 0.9689 0.2475
vn 0.0052 0.9754 0.2202
vn -0.0040 1.0000 0.0042
vn 0.0131 0.0823 -0.9965
vn -0.0492 0.4442 -0.8946
vn -0.0065 -0.9786 -0.2058
vn 0.0053 -0.9378 -0.3471
vn 0.0111 -0.9999 0.0132
vn -0.0084 -0.9930 -0.1179
vn -0.0162 -0.9509 -0.3092
vn 0.0010 0.9872 -0.1595
vn 0.0104 0.9999 -0.0127
vn 0.0051 0.9145 -0.4045
vn -0.0168 0.9653 -0.2604
vn -0.0058 0.9931 -0.1171
vn -0.0055 0.9815 0.1914
vn -0.0133 0.6176 -0.7864
vn 0.0064 0.6803 -0.7329
vn 0.0109 0.3010 -0.9536
vn -0.0155 0.0187 -0.9997
vn 0.0138 -0.2426 -0.9700
vn -0.0139 -0.5873 -0.8092
vn 0.0073 -0.7203 -0.6936
vn -0.0054 -0.9927 0.1207
vn -0.0168 -0.9653 0.2604
vn 0.0046 0.9380 0.3467
vn -0.0083 0.9930 0.1175
vn -0.0162 0.9509 0.3092
vn 0.0014 -0.9872 0.1593
vn 0.0116 -0.8994 0.4370
vn -0.0099 -0.8403 0.5420
vn 0.0147 -0.7567 0.6536
vn -0.0145 -0.3053 0.9521
vn 0.0137 -0.1467 0.9891
vn -0.0143 -0.0190 0.9997
vn 0.0167 0.2154 0.9764
vn -0.0139 0.5873 0.8092
vn 0.0073 0.7203 0.6936
vn 1.0000 0.0004 0.0014
vn 1.0000 0.0003 0.0018
vn 1.0000 -0.0004 -0.0014
vn 1.0000 -0.0003 -0.0018
vn 0.8140 -0.5808 -0.0046
vn 0.8445 -0.4132 -0.3409
vn 0.8360 -0.5203 0.1741
vn 0.8113 -0.5543 -0.1859
vn 0.7981 -0.4299 -0.4221
vn 0.8122 -0.1469 -0.5646
vn 0.8451 0.1317 -0.5181
vn 0.7973 0.1877 -0.5737
vn 0.8106 0.4002 -0.4274
vn 0.8056 0.5407 -0.2420
vn 0.8393 0.5177 -0.1663
vn 0.8140 0.5808 0.0045
vn 0.8445 0.4132 0.3409
vn 0.8113 0.5544 0.1858
vn 0.7981 0.4299 0.4221
vn 0.8093 0.1365 0.5714
vn 0.8413 -0.1345 0.5236
vn 0.8088 -0.2889 0.5122
vn 0.8063 -0.5307 0.2614
s 1
f 1//1 2//1 3//1
f 1//1 3//1 4//1
f 2//1 5//1 6//1
f 2//1 6//1 7//1
f 2//1 7//1 8//1
f 2//1 8//1 3//1
f 5//1 9//1 10//1
f 5//1 10//1 11//1
f 5//1 11//1 12//1
f 9//1 1//1 4//1
f 9//1 4//1 13//1
f 9//1 13//1 14//1
f 9//1 14//1 15//1
f 9//1 15//1 10//1
f 5//1 16//1 17//1
f 5//1 17//1 18//1
f 5//1 18//1 6//1
f 5//1 12//1 16//1
f 19//2 20//2 21//2
f 19//2 21//2 22//2
f 19//2 22//2 23//2
f 21//2 24//2 25//2
f 21//2 25//2 22//2
f 26//2 27//2 28//2
f 26//2 28//2 29//2
f 26//2 29//2 30//2
f 26//2 30//2 31//2
f 32//2 33//2 26//2
f 26//2 33//2 27//2
f 34//2 33//2 32//2
f 35//2 36//2 37//2
f 37//2 36//2 38//2
f 37//2 38//2 34//2
f 34//2 38//2 33//2
f 39//2 40//2 41//2
f 41//2 40//2 42//2
f 41//2 42//2 43//2
f 43//2 42//2 44//2
f 43//2 44//2 35//2
f 35//2 44//2 36//2
f 45//2 46//2 47//2
f 47//2 46//2 48//2
f 47//2 48//2 39//2
f 39//2 48//2 40//2
f 20//2 19//2 46//2
f 20//2 46//2 45//2
f 49//2 31//2 50//2
f 50//2 31//2 30//2
f 50//2 51//2 49//2
f 52//2 53//2 54//2
f 52//2 54//2 55//2
f 55//2 54//2 51//2
f 55//2 51//2 50//2
f 56//2 57//2 58//2
f 56//2 58//2 59//2
f 59//2 58//2 60//2
f 59//2 60//2 52//2
f 52//2 60//2 53//2
f 24//2 61//2 62//2
f 62//2 61//2 63//2
f 62//2 63//2 57//2
f 62//2 57//2 56//2
f 24//2 21//2 61//2
f 64//3 65//4 66//5
f 64//3 66//5 67//6
f 64//3 67//6 68//6
f 64//3 68//6 69//6
f 70//7 71//7 72//8
f 70//7 72//8 73//7
f 74//7 71//7 70//7
f 75//9 76//10 77//11
f 75//9 77//11 78//12
f 75//9 78//12 79//13
f 75//9 79//13 80//13
f 81//14 82//14 83//14
f 84//15 85//14 86//16
f 87//14 88//14 89//14
f 90//17 91//14 92//14
f 93//14 86//16 85//14
f 94//14 82//14 81//14
f 95//14 96//18 97//15
f 95//14 97//15 90//17
f 95//14 90//17 92//14
f 98//14 99//14 88//14
f 98//14 88//14 87//14
f 98//14 87//14 100//14
f 101//14 102//14 103//14
f 101//14 103//14 104//14
f 105//14 106//14 107//14
f 105//14 107//14 108//14
f 108//14 107//14 109//14
f 108//14 109//14 110//14
f 109//14 111//14 110//14
f 112//14 111//14 109//14
f 111//14 112//14 113//14
f 113//14 112//14 114//14
f 113//14 114//14 115//14
f 115//14 114//14 83//14
f 83//14 114//14 116//14
f 83//14 116//14 81//14
f 108//14 110//14 117//14
f 108//14 117//14 118//14
f 118//14 117//14 119//14
f 118//14 119//14 120//14
f 118//14 120//14 121//19
f 121//19 120//14 85//14
f 121//19 85//14 84//15
f 96//18 95//14 122//14
f 96//18 122//14 123//14
f 123//14 122//14 124//14
f 123//14 124//14 102//14
f 102//14 124//14 125//14
f 102//14 125//14 103//14
f 89//14 88//14 126//14
f 126//14 88//14 127//14
f 126//14 127//14 128//14
f 128//14 127//14 104//14
f 104//14 127//14 101//14
f 102//14 101//14 129//14
f 102//14 129//14 130//14
f 130//14 129//14 131//14
f 132//20 133//21 134//22
f 135//23 136//24 132//20
f 137//25 136//24 135//23
f 137//25 138//26 136//24
f 139//27 138//26 137//25
f 139//27 140//28 138//26
f 141//29 140//28 139//27
f 141//29 142//30 140//28
f 143//31 142//30 141//29
f 143//31 144//32 142//30
f 145//33 144//32 143//31
f 145//33 146//34 144//32
f 147//35 146//34 145//33
f 147//35 148//36 146//34
f 149//37 148//36 147//35
f 150//38 151//39 152//40
f 152//40 153//41 150//38
f 153//41 154//42 155//43
f 156//44 150//38 153//41
f 156//44 153//41 155//43
f 133//21 132//20 136//24
f 133//21 136//24 157//45
f 152//40 151//39 149//37
f 149//37 151//39 148//36
f 132//20 134//22 158//46
f 154//42 159//47 155//43
f 160//48 159//47 154//42
f 161//49 162//50 160//48
f 161//49 163//51 162//50
f 164//52 163//51 161//49
f 164//52 165//53 163//51
f 164//52 166//54 165//53
f 167//55 165//53 166//54
f 166//54 168//56 167//55
f 169//57 167//55 168//56
f 168//56 170//58 169//57
f 171//59 169//57 170//58
f 170//58 172//60 171//59
f 173//61 171//59 172//60
f 172//60 174//62 173//61
f 175//63 173//61 174//62
f 174//62 176//64 175//63
f 177//65 175//63 176//64
f 176//64 178//66 177//65
f 178//66 158//46 177//65
f 134//22 179//67 158//46
f 179//67 180//68 177//65
f 179//67 177//65 158//46
f 181//69 159//47 160//48
f 181//69 160//48 162//50
f 182//70 155//43 159//47
f 182//70 159//47 183//71
f 184//14 185//14 186//14
f 184//14 186//14 187//14
f 184//14 187//14 188//14
f 184//14 188//14 189//14
f 190//14 191//14 186//14
f 186//14 191//14 187//14
f 192//72 193//73 194//74
f 194//74 193//73 195//75
f 183//71 159//47 181//69
f 196//76 197//77 198//78
f 198//78 197//77 199//79
f 155//43 182//70 156//44
f 200//80 201//81 202//82
f 202//82 201//81 203//83
f 204//84 205//85 206//86
f 206//86 205//85 207//87
f 208//88 209//89 210//90
f 208//88 210//90 211//91
f 208//88 211//91 212//92
f 213//93 214//94 215//95
f 214//94 216//96 215//95
f 215//95 216//96 217//97
f 218//14 219//14 220//14
f 220//14 219//14 221//14
f 222//80 223//80 224//80
f 224//80 223//80 225//80
f 224//80 225//80 226//80
f 226//80 225//80 227//80
f 227//80 225//80 228//80
f 227//80 228//80 229//80
f 227//80 229//80 230//80
f 230//80 229//80 231//80
f 231//80 229//80 232//80
f 231//80 232//80 233//80
f 231//80 233//80 234//80
f 234//80 233//80 235//80
f 236//98 237//99 238//100
f 238//100 237//99 239//101
f 238//100 239//101 240//102
f 240//102 239//101 241//103
f 240//102 241//103 242//104
f 242//104 241//103 243//105
f 242//104 243//105 244//106
f 244//106 243//105 245//107
f 244//106 245//107 246//108
f 246//108 245//107 247//109
f 246//108 247//109 248//110
f 248//110 247//109 249//111
f 248//110 249//111 250//112
f 250//112 249//111 251//113
f 250//112 251//113 252//114
f 252//114 251//113 253//115
f 252//114 253//115 254//116
f 254//116 253//115 255//117
f 254//116 255//117 256//118
f 256//118 255//117 257//119
f 256//118 257//119 258//120
f 258//120 257//119 259//121
f 258//120 259//121 260//122
f 260//122 259//121 261//123
f 260//122 261//123 262//124
f 262//124 261//123 263//125
f 262//124 263//125 236//98
f 236//98 263//125 237//99
f 264//14 265//14 266//14
f 264//14 266//14 267//14
f 268//126 269//127 270//128
f 270//128 269//127 271//129
f 269//127 272//130 271//129
f 273//131 274//132 275//133
f 275//133 274//132 276//134
f 274//132 277//135 276//134
f 276//134 277//135 278//136
f 279//1 280//1 281//1
f 280//1 279//1 282//1
f 282//1 279//1 283//1
f 282//1 283//1 284//137
f 284//137 283//1 285//138
f 284//137 285//138 286//139
f 287//2 288//2 289//2
f 287//2 289//2 290//2
f 291//2 292//2 293//2
f 294//2 292//2 291//2
f 295//140 296//141 297//142
f 298//143 296//141 295//140
f 299//144 298//143 295//140
f 300//145 298//143 299//144
f 301//146 300//145 299//144
f 302//147 300//145 301//146
f 303//148 302//147 301//146
f 304//149 302//147 303//148
f 305//150 304//149 303//148
f 306//151 304//149 305//150
f 307//152 308//153 309//154
f 309//154 310//155 307//152
f 310//155 309//154 311//156
f 311//156 312//157 310//155
f 312//157 311//156 313//158
f 313//158 314//159 312//157
f 314//159 313//158 315//160
f 315//160 316//161 314//159
f 316//161 315//160 317//162
f 318//163 319//164 296//141
f 296//141 319//164 297//142
f 320//165 321//165 322//165
f 270//128 271//129 323//166
f 317//162 324//167 316//161
f 308//153 307//152 306//151
f 308//153 306//151 305//150
f 325//168 326//169 327//170
f 328//171 326//169 325//168
f 329//172 328//171 325//168
f 330//173 328//171 329//172
f 331//174 330//173 329//172
f 332//175 330//173 331//174
f 333//176 332//175 331//174
f 334//177 332//175 333//176
f 335//178 334//177 333//176
f 336//179 337//180 338//181
f 337//180 336//179 339//182
f 339//182 340//183 337//180
f 340//183 339//182 341//184
f 341//184 342//185 340//183
f 342//185 341//184 343//186
f 343//186 344//187 342//185
f 344//187 343//186 345//188
f 345//188 346//189 344//187
f 346//189 345//188 347//190
f 319//164 348//191 297//142
f 211//91 210//90 349//192
f 276//134 278//136 350//193
f 336//179 338//181 335//178
f 335//178 338//181 334//177
f 351//194 352//195 353//196
f 354//197 355//198 352//195
f 354//197 352//195 351//194
f 356//199 357//200 358//201
f 356//199 358//201 359//202
f 356//199 359//202 360//203
f 357//200 356//199 361//204
f 359//202 358//201 362//205
f 362//205 358//201 363//206
f 362//205 363//206 364//207
f 362//205 364//207 365//208
f 365//208 364//207 366//209
f 365//208 366//209 367//210
f 367//210 366//209 368//211
f 367//210 368//211 355//198
f 355//198 368//211 352//195
f 354//197 369//212 355//198
f 355//198 369//212 370//213
f 361//204 371//214 357//200
f 372//215 373//216 371//214
f 372//215 371//214 361//204
f 374//217 353//196 375//218
f 374//217 375//218 370//213
f 374//217 370//213 369//212
f 370//213 375//218 376//219
f 376//219 375//218 377//220
f 378//221 379//222 380//223
f 380//223 379//222 381//224
f 380//223 381//224 382//225
f 382//225 381//224 383//226
f 382//225 383//226 373//216
f 373//216 383//226 371//214
f 372//215 360//203 373//216
f 373//216 360//203 359//202
f 351//194 353//196 374//217
f 384//227 385//228 386//19
f 384//227 386//19 387//18
f 387//18 386//19 388//229
f 387//18 388//229 389//230
f 390//231 391//232 392//233
f 390//231 393//234 391//232
f 393//234 394//235 391//232
f 394//235 395//236 391//232
f 391//232 395//236 396//237
f 395//236 397//238 396//237
f 397//238 398//239 396//237
f 398//239 399//240 400//241
f 396//237 398//239 400//241
f 399//240 401//242 400//241
f 401//242 402//243 400//241
f 401//242 403//244 402//243
f 403//244 404//245 402//243
f 404//245 405//246 402//243
f 402//243 405//246 406//247
f 405//246 407//248 406//247
f 407//248 408//249 392//233
f 406//247 407//248 392//233
f 408//249 390//231 392//233
f 409//2 410//2 411//2
f 411//2 410//2 412//2
f 411//2 412//2 413//2
f 413//2 412//2 414//2
f 410//2 409//2 415//2
f 415//2 409//2 416//2
f 415//2 416//2 417//2
f 417//2 416//2 418//2
